/Users/user/Desktop/proyectos/rest/api-security/src/main/java/io/api/security/SecurityApplication.java
/Users/user/Desktop/proyectos/rest/api-security/src/main/java/io/api/security/dto/UsuarioDTO.java
/Users/user/Desktop/proyectos/rest/api-security/src/main/java/io/api/security/service/UsuarioService.java
/Users/user/Desktop/proyectos/rest/api-security/src/main/java/io/api/security/controller/AuthController.java
/Users/user/Desktop/proyectos/rest/api-security/src/main/java/io/api/security/repository/UsuarioRepo.java
/Users/user/Desktop/proyectos/rest/api-security/src/main/java/io/api/security/service/impl/UsuarioServiceImpl.java
/Users/user/Desktop/proyectos/rest/api-security/src/main/java/io/api/security/entity/UsuarioDAO.java
/Users/user/Desktop/proyectos/rest/api-security/src/main/java/io/api/security/enums/RolNombre.java
/Users/user/Desktop/proyectos/rest/api-security/src/main/java/io/api/security/entity/Rol.java
